[
  {
    "GroupColor" : 0,
    "RightSlideDoorID" : -1,
    "GroupID" : 6,
    "RightSlideFrameID" : -1,
    "LeftSlideDoorID" : -1,
    "LeftSlideFrameID" : -1,
    "BoxArray" : [
      {
        "LeftHingeDoorID" : 135,
        "LeftHandlerID" : 25,
        "DecoArray" : [
          {
            "DecoID" : 850,
            "DecoOrigin" : 33,
            "IsDecoOpposite" : false,
            "DecoWidth" : 2,
            "DecoDepend" : -1,
            "IsDecoLeft" : true,
            "DecoColor" : 0
          },
          {
            "DecoID" : 501,
            "DecoOrigin" : 39,
            "IsDecoOpposite" : false,
            "DecoWidth" : 2,
            "DecoDepend" : -1,
            "IsDecoLeft" : true,
            "DecoColor" : 0
          },
          {
            "DecoID" : 551,
            "DecoOrigin" : 49,
            "IsDecoOpposite" : false,
            "DecoWidth" : 2,
            "DecoDepend" : -1,
            "IsDecoLeft" : true,
            "DecoColor" : 0
          },
          {
            "DecoID" : 651,
            "DecoOrigin" : 125,
            "IsDecoOpposite" : false,
            "DecoWidth" : 2,
            "DecoDepend" : -1,
            "IsDecoLeft" : true,
            "DecoColor" : 0
          },
          {
            "DecoID" : 551,
            "DecoOrigin" : 129,
            "IsDecoOpposite" : false,
            "DecoWidth" : 2,
            "DecoDepend" : -1,
            "IsDecoLeft" : true,
            "DecoColor" : 0
          }
        ],
        "RightDoorColorID" : 16,
        "RightHingeDoorID" : 135,
        "LeftDoorColorID" : 16,
        "RightHandlerID" : 25
      }
    ]
  },
  {
    "GroupColor" : 0,
    "RightSlideDoorID" : -1,
    "GroupID" : 10,
    "RightSlideFrameID" : -1,
    "LeftSlideDoorID" : -1,
    "LeftSlideFrameID" : -1,
    "BoxArray" : [
      {
        "LeftHingeDoorID" : 135,
        "LeftHandlerID" : 25,
        "DecoArray" : [
          {
            "DecoID" : 601,
            "DecoOrigin" : 11,
            "IsDecoOpposite" : false,
            "DecoWidth" : 0,
            "DecoDepend" : -1,
            "IsDecoLeft" : true,
            "DecoColor" : 0
          },
          {
            "DecoID" : 601,
            "DecoOrigin" : 23,
            "IsDecoOpposite" : false,
            "DecoWidth" : 0,
            "DecoDepend" : -1,
            "IsDecoLeft" : true,
            "DecoColor" : 0
          },
          {
            "DecoID" : 551,
            "DecoOrigin" : 25,
            "IsDecoOpposite" : false,
            "DecoWidth" : 0,
            "DecoDepend" : -1,
            "IsDecoLeft" : true,
            "DecoColor" : 0
          },
          {
            "DecoID" : 700,
            "DecoOrigin" : 103,
            "IsDecoOpposite" : false,
            "DecoWidth" : 0,
            "DecoDepend" : -1,
            "IsDecoLeft" : false,
            "DecoColor" : 0
          },
          {
            "DecoID" : 651,
            "DecoOrigin" : 125,
            "IsDecoOpposite" : false,
            "DecoWidth" : 0,
            "DecoDepend" : -1,
            "IsDecoLeft" : true,
            "DecoColor" : 0
          },
          {
            "DecoID" : 551,
            "DecoOrigin" : 129,
            "IsDecoOpposite" : false,
            "DecoWidth" : 0,
            "DecoDepend" : -1,
            "IsDecoLeft" : true,
            "DecoColor" : 0
          }
        ],
        "RightDoorColorID" : -1,
        "RightHingeDoorID" : -1,
        "LeftDoorColorID" : 16,
        "RightHandlerID" : -1
      }
    ]
  }
]