[
  {
    "GroupColor" : 0,
    "RightSlideDoorID" : -1,
    "GroupID" : 1,
    "RightSlideFrameID" : -1,
    "LeftSlideDoorID" : -1,
    "LeftSlideFrameID" : -1,
    "BoxArray" : [
      {
        "LeftHingeDoorID" : 116,
        "LeftHandlerID" : 35,
        "DecoArray" : [
          {
            "DecoID" : 751,
            "DecoOrigin" : 49,
            "IsDecoOpposite" : false,
            "DecoWidth" : 2,
            "DecoDepend" : -1,
            "IsDecoLeft" : true,
            "DecoColor" : 0
          },
          {
            "DecoID" : 851,
            "DecoOrigin" : 39,
            "IsDecoOpposite" : false,
            "DecoWidth" : 0,
            "DecoDepend" : 0,
            "IsDecoLeft" : true,
            "DecoColor" : 0
          },
          {
            "DecoID" : 953,
            "DecoOrigin" : 45,
            "IsDecoOpposite" : false,
            "DecoWidth" : 0,
            "DecoDepend" : 0,
            "IsDecoLeft" : true,
            "DecoColor" : 0
          },
          {
            "DecoID" : 602,
            "DecoOrigin" : 13,
            "IsDecoOpposite" : false,
            "DecoWidth" : 0,
            "DecoDepend" : 0,
            "IsDecoLeft" : false,
            "DecoColor" : 0
          },
          {
            "DecoID" : 602,
            "DecoOrigin" : 27,
            "IsDecoOpposite" : false,
            "DecoWidth" : 0,
            "DecoDepend" : 0,
            "IsDecoLeft" : false,
            "DecoColor" : 0
          },
          {
            "DecoID" : 602,
            "DecoOrigin" : 41,
            "IsDecoOpposite" : false,
            "DecoWidth" : 0,
            "DecoDepend" : 0,
            "IsDecoLeft" : false,
            "DecoColor" : 0
          },
          {
            "DecoID" : 650,
            "DecoOrigin" : 115,
            "IsDecoOpposite" : false,
            "DecoWidth" : 2,
            "DecoDepend" : -1,
            "IsDecoLeft" : true,
            "DecoColor" : 0
          }
        ],
        "RightDoorColorID" : 0,
        "RightHingeDoorID" : 116,
        "LeftDoorColorID" : 0,
        "RightHandlerID" : 35
      }
    ]
  }
]