[
  {
    "GroupColor" : 0,
    "RightSlideDoorID" : 236,
    "GroupID" : 65,
    "RightSlideFrameID" : 303,
    "LeftSlideDoorID" : 236,
    "LeftSlideFrameID" : 303,
    "BoxArray" : [
      {
        "LeftHingeDoorID" : -1,
        "LeftHandlerID" : -1,
        "DecoArray" : [
          {
            "DecoID" : 851,
            "DecoOrigin" : 33,
            "IsDecoOpposite" : false,
            "DecoWidth" : 1,
            "DecoDepend" : -1,
            "IsDecoLeft" : true,
            "DecoColor" : 0
          },
          {
            "DecoID" : 502,
            "DecoOrigin" : 39,
            "IsDecoOpposite" : false,
            "DecoWidth" : 1,
            "DecoDepend" : -1,
            "IsDecoLeft" : true,
            "DecoColor" : 0
          },
          {
            "DecoID" : 552,
            "DecoOrigin" : 49,
            "IsDecoOpposite" : false,
            "DecoWidth" : 1,
            "DecoDepend" : -1,
            "IsDecoLeft" : true,
            "DecoColor" : 0
          },
          {
            "DecoID" : 650,
            "DecoOrigin" : 127,
            "IsDecoOpposite" : false,
            "DecoWidth" : 1,
            "DecoDepend" : -1,
            "IsDecoLeft" : true,
            "DecoColor" : 0
          },
          {
            "DecoID" : 550,
            "DecoOrigin" : 129,
            "IsDecoOpposite" : false,
            "DecoWidth" : 1,
            "DecoDepend" : -1,
            "IsDecoLeft" : true,
            "DecoColor" : 0
          }
        ],
        "RightDoorColorID" : -1,
        "RightHingeDoorID" : -1,
        "LeftDoorColorID" : -1,
        "RightHandlerID" : -1
      },
      {
        "LeftHingeDoorID" : -1,
        "LeftHandlerID" : -1,
        "DecoArray" : [
          {
            "DecoID" : 602,
            "DecoOrigin" : 11,
            "IsDecoOpposite" : false,
            "DecoWidth" : 1,
            "DecoDepend" : -1,
            "IsDecoLeft" : true,
            "DecoColor" : 0
          },
          {
            "DecoID" : 602,
            "DecoOrigin" : 23,
            "IsDecoOpposite" : false,
            "DecoWidth" : 1,
            "DecoDepend" : -1,
            "IsDecoLeft" : true,
            "DecoColor" : 0
          },
          {
            "DecoID" : 602,
            "DecoOrigin" : 35,
            "IsDecoOpposite" : false,
            "DecoWidth" : 1,
            "DecoDepend" : -1,
            "IsDecoLeft" : true,
            "DecoColor" : 0
          },
          {
            "DecoID" : 550,
            "DecoOrigin" : 37,
            "IsDecoOpposite" : false,
            "DecoWidth" : 1,
            "DecoDepend" : -1,
            "IsDecoLeft" : true,
            "DecoColor" : 0
          },
          {
            "DecoID" : 701,
            "DecoOrigin" : 103,
            "IsDecoOpposite" : false,
            "DecoWidth" : 1,
            "DecoDepend" : -1,
            "IsDecoLeft" : false,
            "DecoColor" : 0
          },
          {
            "DecoID" : 650,
            "DecoOrigin" : 127,
            "IsDecoOpposite" : false,
            "DecoWidth" : 1,
            "DecoDepend" : -1,
            "IsDecoLeft" : true,
            "DecoColor" : 0
          },
          {
            "DecoID" : 550,
            "DecoOrigin" : 129,
            "IsDecoOpposite" : false,
            "DecoWidth" : 1,
            "DecoDepend" : -1,
            "IsDecoLeft" : true,
            "DecoColor" : 0
          }
        ],
        "RightDoorColorID" : -1,
        "RightHingeDoorID" : -1,
        "LeftDoorColorID" : -1,
        "RightHandlerID" : -1
      }
    ]
  }
]