[
  {
    "GroupColor" : 2,
    "RightSlideDoorID" : 216,
    "GroupID" : 65,
    "RightSlideFrameID" : 301,
    "LeftSlideDoorID" : 216,
    "LeftSlideFrameID" : 301,
    "BoxArray" : [
      {
        "LeftHingeDoorID" : -1,
        "LeftHandlerID" : -1,
        "DecoArray" : [
          {
            "DecoID" : 500,
            "DecoOrigin" : 3,
            "IsDecoOpposite" : false,
            "DecoWidth" : 1,
            "DecoDepend" : -1,
            "IsDecoLeft" : true,
            "DecoColor" : 2
          },
          {
            "DecoID" : 500,
            "DecoOrigin" : 15,
            "IsDecoOpposite" : false,
            "DecoWidth" : 1,
            "DecoDepend" : -1,
            "IsDecoLeft" : true,
            "DecoColor" : 2
          },
          {
            "DecoID" : 500,
            "DecoOrigin" : 27,
            "IsDecoOpposite" : false,
            "DecoWidth" : 1,
            "DecoDepend" : -1,
            "IsDecoLeft" : true,
            "DecoColor" : 2
          },
          {
            "DecoID" : 500,
            "DecoOrigin" : 39,
            "IsDecoOpposite" : false,
            "DecoWidth" : 1,
            "DecoDepend" : -1,
            "IsDecoLeft" : true,
            "DecoColor" : 2
          },
          {
            "DecoID" : 550,
            "DecoOrigin" : 49,
            "IsDecoOpposite" : false,
            "DecoWidth" : 1,
            "DecoDepend" : -1,
            "IsDecoLeft" : true,
            "DecoColor" : 2
          },
          {
            "DecoID" : 650,
            "DecoOrigin" : 127,
            "IsDecoOpposite" : false,
            "DecoWidth" : 1,
            "DecoDepend" : -1,
            "IsDecoLeft" : true,
            "DecoColor" : 21
          },
          {
            "DecoID" : 550,
            "DecoOrigin" : 129,
            "IsDecoOpposite" : false,
            "DecoWidth" : 1,
            "DecoDepend" : -1,
            "IsDecoLeft" : true,
            "DecoColor" : 2
          }
        ],
        "RightDoorColorID" : -1,
        "RightHingeDoorID" : -1,
        "LeftDoorColorID" : -1,
        "RightHandlerID" : -1
      },
      {
        "LeftHingeDoorID" : -1,
        "LeftHandlerID" : -1,
        "DecoArray" : [
          {
            "DecoID" : 750,
            "DecoOrigin" : 49,
            "IsDecoOpposite" : false,
            "DecoWidth" : 1,
            "DecoDepend" : -1,
            "IsDecoLeft" : false,
            "DecoColor" : 2
          },
          {
            "DecoID" : 950,
            "DecoOrigin" : 3,
            "IsDecoOpposite" : false,
            "DecoWidth" : 0,
            "DecoDepend" : 0,
            "IsDecoLeft" : false,
            "DecoColor" : 2
          },
          {
            "DecoID" : 851,
            "DecoOrigin" : 39,
            "IsDecoOpposite" : false,
            "DecoWidth" : 0,
            "DecoDepend" : 0,
            "IsDecoLeft" : false,
            "DecoColor" : 0
          },
          {
            "DecoID" : 950,
            "DecoOrigin" : 45,
            "IsDecoOpposite" : false,
            "DecoWidth" : 0,
            "DecoDepend" : 2,
            "IsDecoLeft" : false,
            "DecoColor" : 2
          },
          {
            "DecoID" : 650,
            "DecoOrigin" : 127,
            "IsDecoOpposite" : false,
            "DecoWidth" : 1,
            "DecoDepend" : -1,
            "IsDecoLeft" : true,
            "DecoColor" : 21
          },
          {
            "DecoID" : 550,
            "DecoOrigin" : 129,
            "IsDecoOpposite" : false,
            "DecoWidth" : 1,
            "DecoDepend" : -1,
            "IsDecoLeft" : true,
            "DecoColor" : 2
          }
        ],
        "RightDoorColorID" : -1,
        "RightHingeDoorID" : -1,
        "LeftDoorColorID" : -1,
        "RightHandlerID" : -1
      }
    ]
  }
]