[
  {
    "GroupColor" : 1,
    "RightSlideDoorID" : 228,
    "GroupID" : 64,
    "RightSlideFrameID" : 306,
    "LeftSlideDoorID" : 214,
    "LeftSlideFrameID" : 306,
    "BoxArray" : [
      {
        "LeftHingeDoorID" : -1,
        "LeftHandlerID" : -1,
        "DecoArray" : [
          {
            "DecoID" : 850,
            "DecoOrigin" : 49,
            "IsDecoOpposite" : false,
            "DecoWidth" : 2,
            "DecoDepend" : -1,
            "IsDecoLeft" : true,
            "DecoColor" : 21
          },
          {
            "DecoID" : 651,
            "DecoOrigin" : 127,
            "IsDecoOpposite" : false,
            "DecoWidth" : 2,
            "DecoDepend" : -1,
            "IsDecoLeft" : true,
            "DecoColor" : 21
          },
          {
            "DecoID" : 551,
            "DecoOrigin" : 129,
            "IsDecoOpposite" : false,
            "DecoWidth" : 2,
            "DecoDepend" : -1,
            "IsDecoLeft" : true,
            "DecoColor" : 9
          }
        ],
        "RightDoorColorID" : -1,
        "RightHingeDoorID" : -1,
        "LeftDoorColorID" : -1,
        "RightHandlerID" : -1
      },
      {
        "LeftHingeDoorID" : -1,
        "LeftHandlerID" : -1,
        "DecoArray" : [
          {
            "DecoID" : 601,
            "DecoOrigin" : 11,
            "IsDecoOpposite" : false,
            "DecoWidth" : 2,
            "DecoDepend" : -1,
            "IsDecoLeft" : true,
            "DecoColor" : 21
          },
          {
            "DecoID" : 601,
            "DecoOrigin" : 23,
            "IsDecoOpposite" : false,
            "DecoWidth" : 2,
            "DecoDepend" : -1,
            "IsDecoLeft" : true,
            "DecoColor" : 21
          },
          {
            "DecoID" : 601,
            "DecoOrigin" : 35,
            "IsDecoOpposite" : false,
            "DecoWidth" : 2,
            "DecoDepend" : -1,
            "IsDecoLeft" : true,
            "DecoColor" : 21
          },
          {
            "DecoID" : 551,
            "DecoOrigin" : 37,
            "IsDecoOpposite" : false,
            "DecoWidth" : 2,
            "DecoDepend" : -1,
            "IsDecoLeft" : true,
            "DecoColor" : 9
          },
          {
            "DecoID" : 651,
            "DecoOrigin" : 127,
            "IsDecoOpposite" : false,
            "DecoWidth" : 2,
            "DecoDepend" : -1,
            "IsDecoLeft" : true,
            "DecoColor" : 21
          },
          {
            "DecoID" : 551,
            "DecoOrigin" : 129,
            "IsDecoOpposite" : false,
            "DecoWidth" : 2,
            "DecoDepend" : -1,
            "IsDecoLeft" : true,
            "DecoColor" : 9
          }
        ],
        "RightDoorColorID" : -1,
        "RightHingeDoorID" : -1,
        "LeftDoorColorID" : -1,
        "RightHandlerID" : -1
      }
    ]
  }
]