[
  {
    "GroupColor" : 0,
    "RightSlideDoorID" : -1,
    "GroupID" : 7,
    "RightSlideFrameID" : -1,
    "LeftSlideDoorID" : -1,
    "LeftSlideFrameID" : -1,
    "BoxArray" : [
      {
        "LeftHingeDoorID" : 106,
        "LeftHandlerID" : -2,
        "DecoArray" : [
          {
            "DecoID" : 751,
            "DecoOrigin" : 49,
            "IsDecoOpposite" : false,
            "DecoWidth" : 2,
            "DecoDepend" : -1,
            "IsDecoLeft" : true,
            "DecoColor" : 0
          },
          {
            "DecoID" : 602,
            "DecoOrigin" : 11,
            "IsDecoOpposite" : false,
            "DecoWidth" : 0,
            "DecoDepend" : 0,
            "IsDecoLeft" : false,
            "DecoColor" : 0
          },
          {
            "DecoID" : 602,
            "DecoOrigin" : 23,
            "IsDecoOpposite" : false,
            "DecoWidth" : 0,
            "DecoDepend" : 0,
            "IsDecoLeft" : false,
            "DecoColor" : 0
          },
          {
            "DecoID" : 550,
            "DecoOrigin" : 25,
            "IsDecoOpposite" : false,
            "DecoWidth" : 0,
            "DecoDepend" : 0,
            "IsDecoLeft" : false,
            "DecoColor" : 0
          },
          {
            "DecoID" : 550,
            "DecoOrigin" : 61,
            "IsDecoOpposite" : false,
            "DecoWidth" : 2,
            "DecoDepend" : -1,
            "IsDecoLeft" : true,
            "DecoColor" : 0
          },
          {
            "DecoID" : 650,
            "DecoOrigin" : 127,
            "IsDecoOpposite" : false,
            "DecoWidth" : 2,
            "DecoDepend" : -1,
            "IsDecoLeft" : true,
            "DecoColor" : 0
          },
          {
            "DecoID" : 550,
            "DecoOrigin" : 129,
            "IsDecoOpposite" : false,
            "DecoWidth" : 2,
            "DecoDepend" : -1,
            "IsDecoLeft" : true,
            "DecoColor" : 0
          },
          {
            "DecoID" : 650,
            "DecoOrigin" : 48,
            "IsDecoOpposite" : false,
            "DecoWidth" : 0,
            "DecoDepend" : 0,
            "IsDecoLeft" : true,
            "DecoColor" : 0
          }
        ],
        "RightDoorColorID" : 0,
        "RightHingeDoorID" : 106,
        "LeftDoorColorID" : 0,
        "RightHandlerID" : -2
      }
    ]
  }
]