[
  {
    "GroupColor" : 0,
    "RightSlideDoorID" : 221,
    "GroupID" : 69,
    "RightSlideFrameID" : 307,
    "LeftSlideDoorID" : 221,
    "LeftSlideFrameID" : 307,
    "BoxArray" : [
      {
        "LeftHingeDoorID" : -1,
        "LeftHandlerID" : -1,
        "DecoArray" : [
          {
            "DecoID" : 750,
            "DecoOrigin" : 49,
            "IsDecoOpposite" : false,
            "DecoWidth" : 2,
            "DecoDepend" : -1,
            "IsDecoLeft" : true,
            "DecoColor" : 0
          },
          {
            "DecoID" : 602,
            "DecoOrigin" : 11,
            "IsDecoOpposite" : false,
            "DecoWidth" : 0,
            "DecoDepend" : 0,
            "IsDecoLeft" : true,
            "DecoColor" : 0
          },
          {
            "DecoID" : 602,
            "DecoOrigin" : 23,
            "IsDecoOpposite" : false,
            "DecoWidth" : 0,
            "DecoDepend" : 0,
            "IsDecoLeft" : true,
            "DecoColor" : 0
          },
          {
            "DecoID" : 500,
            "DecoOrigin" : 27,
            "IsDecoOpposite" : false,
            "DecoWidth" : 0,
            "DecoDepend" : 0,
            "IsDecoLeft" : true,
            "DecoColor" : 0
          },
          {
            "DecoID" : 500,
            "DecoOrigin" : 39,
            "IsDecoOpposite" : false,
            "DecoWidth" : 0,
            "DecoDepend" : 0,
            "IsDecoLeft" : true,
            "DecoColor" : 0
          },
          {
            "DecoID" : 701,
            "DecoOrigin" : 99,
            "IsDecoOpposite" : false,
            "DecoWidth" : 2,
            "DecoDepend" : -1,
            "IsDecoLeft" : true,
            "DecoColor" : 0
          },
          {
            "DecoID" : 650,
            "DecoOrigin" : 127,
            "IsDecoOpposite" : false,
            "DecoWidth" : 2,
            "DecoDepend" : -1,
            "IsDecoLeft" : true,
            "DecoColor" : 0
          },
          {
            "DecoID" : 550,
            "DecoOrigin" : 129,
            "IsDecoOpposite" : false,
            "DecoWidth" : 2,
            "DecoDepend" : -1,
            "IsDecoLeft" : false,
            "DecoColor" : 0
          },
          {
            "DecoID" : 550,
            "DecoOrigin" : 22,
            "IsDecoOpposite" : false,
            "DecoWidth" : 0,
            "DecoDepend" : -1,
            "IsDecoLeft" : false,
            "DecoColor" : 0
          }
        ],
        "RightDoorColorID" : -1,
        "RightHingeDoorID" : -1,
        "LeftDoorColorID" : -1,
        "RightHandlerID" : -1
      },
      {
        "LeftHingeDoorID" : -1,
        "LeftHandlerID" : -1,
        "DecoArray" : [
          {
            "DecoID" : 851,
            "DecoOrigin" : 37,
            "IsDecoOpposite" : false,
            "DecoWidth" : 2,
            "DecoDepend" : -1,
            "IsDecoLeft" : true,
            "DecoColor" : 0
          },
          {
            "DecoID" : 901,
            "DecoOrigin" : 61,
            "IsDecoOpposite" : false,
            "DecoWidth" : 2,
            "DecoDepend" : -1,
            "IsDecoLeft" : true,
            "DecoColor" : 0
          },
          {
            "DecoID" : 650,
            "DecoOrigin" : 127,
            "IsDecoOpposite" : false,
            "DecoWidth" : 2,
            "DecoDepend" : -1,
            "IsDecoLeft" : true,
            "DecoColor" : 0
          },
          {
            "DecoID" : 550,
            "DecoOrigin" : 129,
            "IsDecoOpposite" : false,
            "DecoWidth" : 2,
            "DecoDepend" : -1,
            "IsDecoLeft" : true,
            "DecoColor" : 0
          }
        ],
        "RightDoorColorID" : -1,
        "RightHingeDoorID" : -1,
        "LeftDoorColorID" : -1,
        "RightHandlerID" : -1
      }
    ]
  }
]