[
  {
    "GroupColor" : 0,
    "RightSlideDoorID" : -1,
    "GroupID" : 65,
    "RightSlideFrameID" : -1,
    "LeftSlideDoorID" : 204,
    "LeftSlideFrameID" : 309,
    "BoxArray" : [
      {
        "LeftHingeDoorID" : -1,
        "LeftHandlerID" : -1,
        "DecoArray" : [
          {
            "DecoID" : 851,
            "DecoOrigin" : 33,
            "IsDecoOpposite" : false,
            "DecoWidth" : 1,
            "DecoDepend" : -1,
            "IsDecoLeft" : true,
            "DecoColor" : 0
          },
          {
            "DecoID" : 951,
            "DecoOrigin" : 39,
            "IsDecoOpposite" : false,
            "DecoWidth" : 1,
            "DecoDepend" : -1,
            "IsDecoLeft" : true,
            "DecoColor" : 0
          },
          {
            "DecoID" : 550,
            "DecoOrigin" : 43,
            "IsDecoOpposite" : false,
            "DecoWidth" : 1,
            "DecoDepend" : -1,
            "IsDecoLeft" : true,
            "DecoColor" : 0
          },
          {
            "DecoID" : 650,
            "DecoOrigin" : 127,
            "IsDecoOpposite" : false,
            "DecoWidth" : 1,
            "DecoDepend" : -1,
            "IsDecoLeft" : true,
            "DecoColor" : 0
          },
          {
            "DecoID" : 550,
            "DecoOrigin" : 129,
            "IsDecoOpposite" : false,
            "DecoWidth" : 1,
            "DecoDepend" : -1,
            "IsDecoLeft" : true,
            "DecoColor" : 0
          }
        ],
        "RightDoorColorID" : -1,
        "RightHingeDoorID" : -1,
        "LeftDoorColorID" : -1,
        "RightHandlerID" : -1
      },
      {
        "LeftHingeDoorID" : -1,
        "LeftHandlerID" : -1,
        "DecoArray" : [
          {
            "DecoID" : 602,
            "DecoOrigin" : 11,
            "IsDecoOpposite" : false,
            "DecoWidth" : 1,
            "DecoDepend" : -1,
            "IsDecoLeft" : true,
            "DecoColor" : 0
          },
          {
            "DecoID" : 602,
            "DecoOrigin" : 23,
            "IsDecoOpposite" : false,
            "DecoWidth" : 1,
            "DecoDepend" : -1,
            "IsDecoLeft" : true,
            "DecoColor" : 0
          },
          {
            "DecoID" : 602,
            "DecoOrigin" : 35,
            "IsDecoOpposite" : false,
            "DecoWidth" : 1,
            "DecoDepend" : -1,
            "IsDecoLeft" : true,
            "DecoColor" : 0
          },
          {
            "DecoID" : 602,
            "DecoOrigin" : 47,
            "IsDecoOpposite" : false,
            "DecoWidth" : 1,
            "DecoDepend" : -1,
            "IsDecoLeft" : true,
            "DecoColor" : 0
          },
          {
            "DecoID" : 550,
            "DecoOrigin" : 49,
            "IsDecoOpposite" : false,
            "DecoWidth" : 1,
            "DecoDepend" : -1,
            "IsDecoLeft" : true,
            "DecoColor" : 0
          },
          {
            "DecoID" : 650,
            "DecoOrigin" : 127,
            "IsDecoOpposite" : false,
            "DecoWidth" : 1,
            "DecoDepend" : -1,
            "IsDecoLeft" : true,
            "DecoColor" : 0
          },
          {
            "DecoID" : 550,
            "DecoOrigin" : 129,
            "IsDecoOpposite" : false,
            "DecoWidth" : 1,
            "DecoDepend" : -1,
            "IsDecoLeft" : true,
            "DecoColor" : 0
          }
        ],
        "RightDoorColorID" : -1,
        "RightHingeDoorID" : -1,
        "LeftDoorColorID" : -1,
        "RightHandlerID" : -1
      }
    ]
  },
  {
    "GroupColor" : 0,
    "RightSlideDoorID" : -1,
    "GroupID" : 65,
    "RightSlideFrameID" : -1,
    "LeftSlideDoorID" : 204,
    "LeftSlideFrameID" : 309,
    "BoxArray" : [
      {
        "LeftHingeDoorID" : -1,
        "LeftHandlerID" : -1,
        "DecoArray" : [
          {
            "DecoID" : 500,
            "DecoOrigin" : 3,
            "IsDecoOpposite" : false,
            "DecoWidth" : 1,
            "DecoDepend" : -1,
            "IsDecoLeft" : true,
            "DecoColor" : 0
          },
          {
            "DecoID" : 500,
            "DecoOrigin" : 15,
            "IsDecoOpposite" : false,
            "DecoWidth" : 1,
            "DecoDepend" : -1,
            "IsDecoLeft" : true,
            "DecoColor" : 0
          },
          {
            "DecoID" : 500,
            "DecoOrigin" : 27,
            "IsDecoOpposite" : false,
            "DecoWidth" : 1,
            "DecoDepend" : -1,
            "IsDecoLeft" : true,
            "DecoColor" : 0
          },
          {
            "DecoID" : 500,
            "DecoOrigin" : 39,
            "IsDecoOpposite" : false,
            "DecoWidth" : 1,
            "DecoDepend" : -1,
            "IsDecoLeft" : true,
            "DecoColor" : 0
          },
          {
            "DecoID" : 550,
            "DecoOrigin" : 49,
            "IsDecoOpposite" : false,
            "DecoWidth" : 1,
            "DecoDepend" : -1,
            "IsDecoLeft" : true,
            "DecoColor" : 0
          },
          {
            "DecoID" : 650,
            "DecoOrigin" : 127,
            "IsDecoOpposite" : false,
            "DecoWidth" : 1,
            "DecoDepend" : -1,
            "IsDecoLeft" : true,
            "DecoColor" : 0
          },
          {
            "DecoID" : 550,
            "DecoOrigin" : 129,
            "IsDecoOpposite" : false,
            "DecoWidth" : 1,
            "DecoDepend" : -1,
            "IsDecoLeft" : true,
            "DecoColor" : 0
          }
        ],
        "RightDoorColorID" : -1,
        "RightHingeDoorID" : -1,
        "LeftDoorColorID" : -1,
        "RightHandlerID" : -1
      },
      {
        "LeftHingeDoorID" : -1,
        "LeftHandlerID" : -1,
        "DecoArray" : [
          {
            "DecoID" : 950,
            "DecoOrigin" : 19,
            "IsDecoOpposite" : false,
            "DecoWidth" : 1,
            "DecoDepend" : -1,
            "IsDecoLeft" : true,
            "DecoColor" : 0
          },
          {
            "DecoID" : 952,
            "DecoOrigin" : 39,
            "IsDecoOpposite" : false,
            "DecoWidth" : 1,
            "DecoDepend" : -1,
            "IsDecoLeft" : true,
            "DecoColor" : 0
          },
          {
            "DecoID" : 952,
            "DecoOrigin" : 45,
            "IsDecoOpposite" : false,
            "DecoWidth" : 1,
            "DecoDepend" : -1,
            "IsDecoLeft" : true,
            "DecoColor" : 0
          },
          {
            "DecoID" : 550,
            "DecoOrigin" : 49,
            "IsDecoOpposite" : false,
            "DecoWidth" : 1,
            "DecoDepend" : -1,
            "IsDecoLeft" : true,
            "DecoColor" : 0
          },
          {
            "DecoID" : 701,
            "DecoOrigin" : 103,
            "IsDecoOpposite" : false,
            "DecoWidth" : 1,
            "DecoDepend" : -1,
            "IsDecoLeft" : false,
            "DecoColor" : 0
          },
          {
            "DecoID" : 650,
            "DecoOrigin" : 127,
            "IsDecoOpposite" : false,
            "DecoWidth" : 1,
            "DecoDepend" : -1,
            "IsDecoLeft" : true,
            "DecoColor" : 0
          },
          {
            "DecoID" : 550,
            "DecoOrigin" : 129,
            "IsDecoOpposite" : false,
            "DecoWidth" : 1,
            "DecoDepend" : -1,
            "IsDecoLeft" : true,
            "DecoColor" : 0
          }
        ],
        "RightDoorColorID" : -1,
        "RightHingeDoorID" : -1,
        "LeftDoorColorID" : -1,
        "RightHandlerID" : -1
      }
    ]
  }
]