[
  {
    "GroupColor" : 1,
    "RightSlideDoorID" : -1,
    "GroupID" : 7,
    "RightSlideFrameID" : -1,
    "LeftSlideDoorID" : -1,
    "LeftSlideFrameID" : -1,
    "BoxArray" : [
      {
        "LeftHingeDoorID" : 103,
        "LeftHandlerID" : 17,
        "DecoArray" : [
          {
            "DecoID" : 750,
            "DecoOrigin" : 49,
            "IsDecoOpposite" : false,
            "DecoWidth" : 1,
            "DecoDepend" : -1,
            "IsDecoLeft" : true,
            "DecoColor" : 9
          },
          {
            "DecoID" : 602,
            "DecoOrigin" : 11,
            "IsDecoOpposite" : false,
            "DecoWidth" : 0,
            "DecoDepend" : 0,
            "IsDecoLeft" : true,
            "DecoColor" : 21
          },
          {
            "DecoID" : 602,
            "DecoOrigin" : 23,
            "IsDecoOpposite" : false,
            "DecoWidth" : 0,
            "DecoDepend" : 0,
            "IsDecoLeft" : true,
            "DecoColor" : 21
          },
          {
            "DecoID" : 602,
            "DecoOrigin" : 35,
            "IsDecoOpposite" : false,
            "DecoWidth" : 0,
            "DecoDepend" : 0,
            "IsDecoLeft" : true,
            "DecoColor" : 21
          },
          {
            "DecoID" : 602,
            "DecoOrigin" : 47,
            "IsDecoOpposite" : false,
            "DecoWidth" : 0,
            "DecoDepend" : 0,
            "IsDecoLeft" : true,
            "DecoColor" : 21
          },
          {
            "DecoID" : 701,
            "DecoOrigin" : 51,
            "IsDecoOpposite" : false,
            "DecoWidth" : 2,
            "DecoDepend" : -1,
            "IsDecoLeft" : false,
            "DecoColor" : 21
          },
          {
            "DecoID" : 701,
            "DecoOrigin" : 103,
            "IsDecoOpposite" : false,
            "DecoWidth" : 2,
            "DecoDepend" : -1,
            "IsDecoLeft" : false,
            "DecoColor" : 21
          },
          {
            "DecoID" : 650,
            "DecoOrigin" : 127,
            "IsDecoOpposite" : false,
            "DecoWidth" : 2,
            "DecoDepend" : -1,
            "IsDecoLeft" : true,
            "DecoColor" : 21
          },
          {
            "DecoID" : 550,
            "DecoOrigin" : 129,
            "IsDecoOpposite" : false,
            "DecoWidth" : 2,
            "DecoDepend" : -1,
            "IsDecoLeft" : true,
            "DecoColor" : 9
          }
        ],
        "RightDoorColorID" : 8,
        "RightHingeDoorID" : 103,
        "LeftDoorColorID" : 8,
        "RightHandlerID" : 17
      }
    ]
  }
]