[
  {
    "GroupColor" : 1,
    "RightSlideDoorID" : -1,
    "GroupID" : 7,
    "RightSlideFrameID" : -1,
    "LeftSlideDoorID" : -1,
    "LeftSlideFrameID" : -1,
    "BoxArray" : [
      {
        "LeftHingeDoorID" : 131,
        "LeftHandlerID" : 34,
        "DecoArray" : [
          {
            "DecoID" : 851,
            "DecoOrigin" : 33,
            "IsDecoOpposite" : false,
            "DecoWidth" : 2,
            "DecoDepend" : -1,
            "IsDecoLeft" : true,
            "DecoColor" : 21
          },
          {
            "DecoID" : 500,
            "DecoOrigin" : 39,
            "IsDecoOpposite" : false,
            "DecoWidth" : 2,
            "DecoDepend" : -1,
            "IsDecoLeft" : true,
            "DecoColor" : 9
          },
          {
            "DecoID" : 550,
            "DecoOrigin" : 49,
            "IsDecoOpposite" : false,
            "DecoWidth" : 2,
            "DecoDepend" : -1,
            "IsDecoLeft" : true,
            "DecoColor" : 9
          },
          {
            "DecoID" : 650,
            "DecoOrigin" : 127,
            "IsDecoOpposite" : false,
            "DecoWidth" : 2,
            "DecoDepend" : -1,
            "IsDecoLeft" : true,
            "DecoColor" : 21
          },
          {
            "DecoID" : 550,
            "DecoOrigin" : 129,
            "IsDecoOpposite" : false,
            "DecoWidth" : 2,
            "DecoDepend" : -1,
            "IsDecoLeft" : true,
            "DecoColor" : 9
          }
        ],
        "RightDoorColorID" : 9,
        "RightHingeDoorID" : 131,
        "LeftDoorColorID" : 9,
        "RightHandlerID" : 34
      }
    ]
  },
  {
    "GroupColor" : 1,
    "RightSlideDoorID" : -1,
    "GroupID" : 11,
    "RightSlideFrameID" : -1,
    "LeftSlideDoorID" : -1,
    "LeftSlideFrameID" : -1,
    "BoxArray" : [
      {
        "LeftHingeDoorID" : 131,
        "LeftHandlerID" : 34,
        "DecoArray" : [
          {
            "DecoID" : 650,
            "DecoOrigin" : 47,
            "IsDecoOpposite" : false,
            "DecoWidth" : 0,
            "DecoDepend" : -1,
            "IsDecoLeft" : true,
            "DecoColor" : 21
          },
          {
            "DecoID" : 550,
            "DecoOrigin" : 49,
            "IsDecoOpposite" : false,
            "DecoWidth" : 0,
            "DecoDepend" : -1,
            "IsDecoLeft" : true,
            "DecoColor" : 9
          },
          {
            "DecoID" : 650,
            "DecoOrigin" : 127,
            "IsDecoOpposite" : false,
            "DecoWidth" : 0,
            "DecoDepend" : -1,
            "IsDecoLeft" : true,
            "DecoColor" : 21
          },
          {
            "DecoID" : 550,
            "DecoOrigin" : 129,
            "IsDecoOpposite" : false,
            "DecoWidth" : 0,
            "DecoDepend" : -1,
            "IsDecoLeft" : true,
            "DecoColor" : 9
          }
        ],
        "RightDoorColorID" : -1,
        "RightHingeDoorID" : -1,
        "LeftDoorColorID" : 9,
        "RightHandlerID" : -1
      }
    ]
  }
]