[
  {
    "GroupColor" : 0,
    "RightSlideDoorID" : -1,
    "GroupID" : 7,
    "RightSlideFrameID" : -1,
    "LeftSlideDoorID" : -1,
    "LeftSlideFrameID" : -1,
    "BoxArray" : [
      {
        "LeftHingeDoorID" : 125,
        "LeftHandlerID" : 32,
        "DecoArray" : [
          {
            "DecoID" : 751,
            "DecoOrigin" : 49,
            "IsDecoOpposite" : false,
            "DecoWidth" : 2,
            "DecoDepend" : -1,
            "IsDecoLeft" : true,
            "DecoColor" : 0
          },
          {
            "DecoID" : 602,
            "DecoOrigin" : 11,
            "IsDecoOpposite" : false,
            "DecoWidth" : 0,
            "DecoDepend" : 0,
            "IsDecoLeft" : false,
            "DecoColor" : 0
          },
          {
            "DecoID" : 602,
            "DecoOrigin" : 23,
            "IsDecoOpposite" : false,
            "DecoWidth" : 0,
            "DecoDepend" : 0,
            "IsDecoLeft" : false,
            "DecoColor" : 0
          },
          {
            "DecoID" : 500,
            "DecoOrigin" : 27,
            "IsDecoOpposite" : false,
            "DecoWidth" : 0,
            "DecoDepend" : 0,
            "IsDecoLeft" : false,
            "DecoColor" : 0
          },
          {
            "DecoID" : 500,
            "DecoOrigin" : 39,
            "IsDecoOpposite" : false,
            "DecoWidth" : 0,
            "DecoDepend" : 0,
            "IsDecoLeft" : false,
            "DecoColor" : 0
          },
          {
            "DecoID" : 851,
            "DecoOrigin" : 39,
            "IsDecoOpposite" : false,
            "DecoWidth" : 0,
            "DecoDepend" : 0,
            "IsDecoLeft" : true,
            "DecoColor" : 0
          },
          {
            "DecoID" : 953,
            "DecoOrigin" : 45,
            "IsDecoOpposite" : false,
            "DecoWidth" : 0,
            "DecoDepend" : 0,
            "IsDecoLeft" : true,
            "DecoColor" : 0
          },
          {
            "DecoID" : 701,
            "DecoOrigin" : 103,
            "IsDecoOpposite" : false,
            "DecoWidth" : 1,
            "DecoDepend" : -1,
            "IsDecoLeft" : true,
            "DecoColor" : 0
          },
          {
            "DecoID" : 650,
            "DecoOrigin" : 127,
            "IsDecoOpposite" : false,
            "DecoWidth" : 2,
            "DecoDepend" : -1,
            "IsDecoLeft" : true,
            "DecoColor" : 0
          },
          {
            "DecoID" : 550,
            "DecoOrigin" : 129,
            "IsDecoOpposite" : false,
            "DecoWidth" : 2,
            "DecoDepend" : -1,
            "IsDecoLeft" : true,
            "DecoColor" : 0
          }
        ],
        "RightDoorColorID" : 7,
        "RightHingeDoorID" : 125,
        "LeftDoorColorID" : 7,
        "RightHandlerID" : 32
      }
    ]
  },
  {
    "GroupColor" : 0,
    "RightSlideDoorID" : -1,
    "GroupID" : 11,
    "RightSlideFrameID" : -1,
    "LeftSlideDoorID" : -1,
    "LeftSlideFrameID" : -1,
    "BoxArray" : [
      {
        "LeftHingeDoorID" : 125,
        "LeftHandlerID" : 32,
        "DecoArray" : [
          {
            "DecoID" : 602,
            "DecoOrigin" : 11,
            "IsDecoOpposite" : false,
            "DecoWidth" : 0,
            "DecoDepend" : -1,
            "IsDecoLeft" : true,
            "DecoColor" : 0
          },
          {
            "DecoID" : 602,
            "DecoOrigin" : 23,
            "IsDecoOpposite" : false,
            "DecoWidth" : 0,
            "DecoDepend" : -1,
            "IsDecoLeft" : true,
            "DecoColor" : 0
          },
          {
            "DecoID" : 550,
            "DecoOrigin" : 25,
            "IsDecoOpposite" : false,
            "DecoWidth" : 0,
            "DecoDepend" : -1,
            "IsDecoLeft" : true,
            "DecoColor" : 0
          },
          {
            "DecoID" : 650,
            "DecoOrigin" : 127,
            "IsDecoOpposite" : false,
            "DecoWidth" : 0,
            "DecoDepend" : -1,
            "IsDecoLeft" : true,
            "DecoColor" : 0
          },
          {
            "DecoID" : 550,
            "DecoOrigin" : 129,
            "IsDecoOpposite" : false,
            "DecoWidth" : 0,
            "DecoDepend" : -1,
            "IsDecoLeft" : true,
            "DecoColor" : 0
          }
        ],
        "RightDoorColorID" : -1,
        "RightHingeDoorID" : -1,
        "LeftDoorColorID" : 7,
        "RightHandlerID" : -1
      }
    ]
  }
]