[{"local_designid":1,"marketid":"058","designid":100},
{"local_designid":2,"marketid":"058","designid":101},
{"local_designid":3,"marketid":"058","designid":102},
{"local_designid":1,"marketid":"021","designid":103},
{"local_designid":2,"marketid":"021","designid":104},
{"local_designid":3,"marketid":"021","designid":104}]