[
  {
    "GroupColor" : 0,
    "RightSlideDoorID" : -1,
    "GroupID" : 7,
    "RightSlideFrameID" : -1,
    "LeftSlideDoorID" : -1,
    "LeftSlideFrameID" : -1,
    "BoxArray" : [
      {
        "LeftHingeDoorID" : 133,
        "LeftHandlerID" : 35,
        "DecoArray" : [
          {
            "DecoID" : 602,
            "DecoOrigin" : 11,
            "IsDecoOpposite" : false,
            "DecoWidth" : 2,
            "DecoDepend" : -1,
            "IsDecoLeft" : true,
            "DecoColor" : 0
          },
          {
            "DecoID" : 500,
            "DecoOrigin" : 15,
            "IsDecoOpposite" : false,
            "DecoWidth" : 2,
            "DecoDepend" : -1,
            "IsDecoLeft" : true,
            "DecoColor" : 0
          },
          {
            "DecoID" : 500,
            "DecoOrigin" : 27,
            "IsDecoOpposite" : false,
            "DecoWidth" : 2,
            "DecoDepend" : -1,
            "IsDecoLeft" : true,
            "DecoColor" : 0
          },
          {
            "DecoID" : 500,
            "DecoOrigin" : 39,
            "IsDecoOpposite" : false,
            "DecoWidth" : 2,
            "DecoDepend" : -1,
            "IsDecoLeft" : true,
            "DecoColor" : 0
          },
          {
            "DecoID" : 550,
            "DecoOrigin" : 49,
            "IsDecoOpposite" : false,
            "DecoWidth" : 2,
            "DecoDepend" : -1,
            "IsDecoLeft" : true,
            "DecoColor" : 0
          },
          {
            "DecoID" : 650,
            "DecoOrigin" : 127,
            "IsDecoOpposite" : false,
            "DecoWidth" : 2,
            "DecoDepend" : -1,
            "IsDecoLeft" : true,
            "DecoColor" : 0
          },
          {
            "DecoID" : 550,
            "DecoOrigin" : 129,
            "IsDecoOpposite" : false,
            "DecoWidth" : 2,
            "DecoDepend" : -1,
            "IsDecoLeft" : true,
            "DecoColor" : 0
          }
        ],
        "RightDoorColorID" : 0,
        "RightHingeDoorID" : 133,
        "LeftDoorColorID" : 0,
        "RightHandlerID" : 35
      }
    ]
  },
  {
    "GroupColor" : 0,
    "RightSlideDoorID" : -1,
    "GroupID" : 11,
    "RightSlideFrameID" : -1,
    "LeftSlideDoorID" : -1,
    "LeftSlideFrameID" : -1,
    "BoxArray" : [
      {
        "LeftHingeDoorID" : 133,
        "LeftHandlerID" : 35,
        "DecoArray" : [
          {
            "DecoID" : 851,
            "DecoOrigin" : 45,
            "IsDecoOpposite" : false,
            "DecoWidth" : 0,
            "DecoDepend" : -1,
            "IsDecoLeft" : true,
            "DecoColor" : 0
          },
          {
            "DecoID" : 550,
            "DecoOrigin" : 49,
            "IsDecoOpposite" : false,
            "DecoWidth" : 0,
            "DecoDepend" : -1,
            "IsDecoLeft" : true,
            "DecoColor" : 0
          },
          {
            "DecoID" : 650,
            "DecoOrigin" : 127,
            "IsDecoOpposite" : false,
            "DecoWidth" : 0,
            "DecoDepend" : -1,
            "IsDecoLeft" : true,
            "DecoColor" : 0
          },
          {
            "DecoID" : 550,
            "DecoOrigin" : 129,
            "IsDecoOpposite" : false,
            "DecoWidth" : 0,
            "DecoDepend" : -1,
            "IsDecoLeft" : true,
            "DecoColor" : 0
          }
        ],
        "RightDoorColorID" : -1,
        "RightHingeDoorID" : -1,
        "LeftDoorColorID" : 0,
        "RightHandlerID" : -1
      }
    ]
  }
]