{
  "RightGroup" : [
    {
      "GroupColor" : 2,
      "RightSlideDoorID" : -1,
      "GroupID" : 11,
      "RightSlideFrameID" : -1,
      "LeftSlideDoorID" : -1,
      "LeftSlideFrameID" : -1,
      "BoxArray" : [
        {
          "LeftHingeDoorID" : 130,
          "LeftHandlerID" : 40,
          "DecoArray" : [
            {
              "DecoID" : 950,
              "DecoOrigin" : 3,
              "IsDecoOpposite" : false,
              "DecoWidth" : 0,
              "DecoDepend" : -1,
              "IsDecoLeft" : true,
              "DecoColor" : 2
            },
            {
              "DecoID" : 950,
              "DecoOrigin" : 23,
              "IsDecoOpposite" : false,
              "DecoWidth" : 0,
              "DecoDepend" : -1,
              "IsDecoLeft" : true,
              "DecoColor" : 2
            },
            {
              "DecoID" : 950,
              "DecoOrigin" : 43,
              "IsDecoOpposite" : false,
              "DecoWidth" : 0,
              "DecoDepend" : -1,
              "IsDecoLeft" : true,
              "DecoColor" : 2
            },
            {
              "DecoID" : 950,
              "DecoOrigin" : 61,
              "IsDecoOpposite" : false,
              "DecoWidth" : 0,
              "DecoDepend" : -1,
              "IsDecoLeft" : true,
              "DecoColor" : 2
            },
            {
              "DecoID" : 950,
              "DecoOrigin" : 83,
              "IsDecoOpposite" : false,
              "DecoWidth" : 0,
              "DecoDepend" : -1,
              "IsDecoLeft" : true,
              "DecoColor" : 2
            },
            {
              "DecoID" : 550,
              "DecoOrigin" : 103,
              "IsDecoOpposite" : false,
              "DecoWidth" : 0,
              "DecoDepend" : -1,
              "IsDecoLeft" : true,
              "DecoColor" : 2
            },
            {
              "DecoID" : 550,
              "DecoOrigin" : 111,
              "IsDecoOpposite" : false,
              "DecoWidth" : 0,
              "DecoDepend" : -1,
              "IsDecoLeft" : true,
              "DecoColor" : 2
            },
            {
              "DecoID" : 550,
              "DecoOrigin" : 119,
              "IsDecoOpposite" : false,
              "DecoWidth" : 0,
              "DecoDepend" : -1,
              "IsDecoLeft" : true,
              "DecoColor" : 2
            },
            {
              "DecoID" : 550,
              "DecoOrigin" : 129,
              "IsDecoOpposite" : false,
              "DecoWidth" : 0,
              "DecoDepend" : -1,
              "IsDecoLeft" : true,
              "DecoColor" : 2
            }
          ],
          "RightDoorColorID" : -1,
          "RightHingeDoorID" : -1,
          "LeftDoorColorID" : 4,
          "RightHandlerID" : -1
        }
      ]
    }
  ],
  "LeftGroup" : [
    {
      "GroupColor" : 2,
      "RightSlideDoorID" : -1,
      "GroupID" : 7,
      "RightSlideFrameID" : -1,
      "LeftSlideDoorID" : -1,
      "LeftSlideFrameID" : -1,
      "BoxArray" : [
        {
          "LeftHingeDoorID" : 130,
          "LeftHandlerID" : 40,
          "DecoArray" : [
            {
              "DecoID" : 600,
              "DecoOrigin" : 11,
              "IsDecoOpposite" : false,
              "DecoWidth" : 2,
              "DecoDepend" : -1,
              "IsDecoLeft" : true,
              "DecoColor" : 0
            },
            {
              "DecoID" : 600,
              "DecoOrigin" : 23,
              "IsDecoOpposite" : false,
              "DecoWidth" : 2,
              "DecoDepend" : -1,
              "IsDecoLeft" : true,
              "DecoColor" : 0
            },
            {
              "DecoID" : 600,
              "DecoOrigin" : 35,
              "IsDecoOpposite" : false,
              "DecoWidth" : 2,
              "DecoDepend" : -1,
              "IsDecoLeft" : true,
              "DecoColor" : 0
            },
            {
              "DecoID" : 600,
              "DecoOrigin" : 47,
              "IsDecoOpposite" : false,
              "DecoWidth" : 2,
              "DecoDepend" : -1,
              "IsDecoLeft" : true,
              "DecoColor" : 0
            },
            {
              "DecoID" : 550,
              "DecoOrigin" : 49,
              "IsDecoOpposite" : false,
              "DecoWidth" : 2,
              "DecoDepend" : -1,
              "IsDecoLeft" : true,
              "DecoColor" : 2
            },
            {
              "DecoID" : 550,
              "DecoOrigin" : 69,
              "IsDecoOpposite" : false,
              "DecoWidth" : 2,
              "DecoDepend" : -1,
              "IsDecoLeft" : true,
              "DecoColor" : 2
            },
            {
              "DecoID" : 550,
              "DecoOrigin" : 89,
              "IsDecoOpposite" : false,
              "DecoWidth" : 2,
              "DecoDepend" : -1,
              "IsDecoLeft" : true,
              "DecoColor" : 2
            },
            {
              "DecoID" : 550,
              "DecoOrigin" : 109,
              "IsDecoOpposite" : false,
              "DecoWidth" : 2,
              "DecoDepend" : -1,
              "IsDecoLeft" : true,
              "DecoColor" : 2
            },
            {
              "DecoID" : 550,
              "DecoOrigin" : 129,
              "IsDecoOpposite" : false,
              "DecoWidth" : 2,
              "DecoDepend" : -1,
              "IsDecoLeft" : true,
              "DecoColor" : 2
            }
          ],
          "RightDoorColorID" : 4,
          "RightHingeDoorID" : 130,
          "LeftDoorColorID" : 4,
          "RightHandlerID" : 40
        }
      ]
    }
  ],
  "Corner" : [
    {
      "GroupColor" : 2,
      "RightSlideDoorID" : -1,
      "GroupID" : 12,
      "RightSlideFrameID" : -1,
      "LeftSlideDoorID" : -1,
      "LeftSlideFrameID" : -1,
      "BoxArray" : [
        {
          "LeftHingeDoorID" : 123,
          "LeftHandlerID" : -2,
          "DecoArray" : [

          ],
          "RightDoorColorID" : -1,
          "RightHingeDoorID" : -1,
          "LeftDoorColorID" : 6,
          "RightHandlerID" : -1
        }
      ]
    }
  ]
}