{
  "RightGroup" : [
    {
      "GroupColor" : 0,
      "RightSlideDoorID" : -1,
      "GroupID" : 6,
      "RightSlideFrameID" : -1,
      "LeftSlideDoorID" : -1,
      "LeftSlideFrameID" : -1,
      "BoxArray" : [
        {
          "LeftHingeDoorID" : 111,
          "LeftHandlerID" : 33,
          "DecoArray" : [
            {
              "DecoID" : 601,
              "DecoOrigin" : 11,
              "IsDecoOpposite" : false,
              "DecoWidth" : 2,
              "DecoDepend" : -1,
              "IsDecoLeft" : true,
              "DecoColor" : 0
            },
            {
              "DecoID" : 601,
              "DecoOrigin" : 23,
              "IsDecoOpposite" : false,
              "DecoWidth" : 2,
              "DecoDepend" : -1,
              "IsDecoLeft" : true,
              "DecoColor" : 0
            },
            {
              "DecoID" : 551,
              "DecoOrigin" : 25,
              "IsDecoOpposite" : false,
              "DecoWidth" : 2,
              "DecoDepend" : -1,
              "IsDecoLeft" : true,
              "DecoColor" : 0
            },
            {
              "DecoID" : 651,
              "DecoOrigin" : 125,
              "IsDecoOpposite" : false,
              "DecoWidth" : 2,
              "DecoDepend" : -1,
              "IsDecoLeft" : true,
              "DecoColor" : 0
            },
            {
              "DecoID" : 551,
              "DecoOrigin" : 129,
              "IsDecoOpposite" : false,
              "DecoWidth" : 2,
              "DecoDepend" : -1,
              "IsDecoLeft" : true,
              "DecoColor" : 0
            }
          ],
          "RightDoorColorID" : 17,
          "RightHingeDoorID" : 111,
          "LeftDoorColorID" : 17,
          "RightHandlerID" : 33
        }
      ]
    }
  ],
  "LeftGroup" : [
    {
      "GroupColor" : 0,
      "RightSlideDoorID" : -1,
      "GroupID" : 10,
      "RightSlideFrameID" : -1,
      "LeftSlideDoorID" : -1,
      "LeftSlideFrameID" : -1,
      "BoxArray" : [
        {
          "LeftHingeDoorID" : 129,
          "LeftHandlerID" : 33,
          "DecoArray" : [
            {
              "DecoID" : 601,
              "DecoOrigin" : 11,
              "IsDecoOpposite" : false,
              "DecoWidth" : 0,
              "DecoDepend" : -1,
              "IsDecoLeft" : true,
              "DecoColor" : 0
            },
            {
              "DecoID" : 601,
              "DecoOrigin" : 23,
              "IsDecoOpposite" : false,
              "DecoWidth" : 0,
              "DecoDepend" : -1,
              "IsDecoLeft" : true,
              "DecoColor" : 0
            },
            {
              "DecoID" : 601,
              "DecoOrigin" : 35,
              "IsDecoOpposite" : false,
              "DecoWidth" : 0,
              "DecoDepend" : -1,
              "IsDecoLeft" : true,
              "DecoColor" : 0
            },
            {
              "DecoID" : 501,
              "DecoOrigin" : 39,
              "IsDecoOpposite" : false,
              "DecoWidth" : 0,
              "DecoDepend" : -1,
              "IsDecoLeft" : true,
              "DecoColor" : 0
            },
            {
              "DecoID" : 551,
              "DecoOrigin" : 49,
              "IsDecoOpposite" : false,
              "DecoWidth" : 0,
              "DecoDepend" : -1,
              "IsDecoLeft" : true,
              "DecoColor" : 0
            },
            {
              "DecoID" : 551,
              "DecoOrigin" : 73,
              "IsDecoOpposite" : false,
              "DecoWidth" : 0,
              "DecoDepend" : -1,
              "IsDecoLeft" : true,
              "DecoColor" : 0
            },
            {
              "DecoID" : 551,
              "DecoOrigin" : 101,
              "IsDecoOpposite" : false,
              "DecoWidth" : 0,
              "DecoDepend" : -1,
              "IsDecoLeft" : true,
              "DecoColor" : 0
            },
            {
              "DecoID" : 551,
              "DecoOrigin" : 129,
              "IsDecoOpposite" : false,
              "DecoWidth" : 0,
              "DecoDepend" : -1,
              "IsDecoLeft" : true,
              "DecoColor" : 0
            }
          ],
          "RightDoorColorID" : -1,
          "RightHingeDoorID" : -1,
          "LeftDoorColorID" : 0,
          "RightHandlerID" : -1
        }
      ]
    }
  ],
  "Corner" : [
    {
      "GroupColor" : 0,
      "RightSlideDoorID" : -1,
      "GroupID" : 12,
      "RightSlideFrameID" : -1,
      "LeftSlideDoorID" : -1,
      "LeftSlideFrameID" : -1,
      "BoxArray" : [
        {
          "LeftHingeDoorID" : 129,
          "LeftHandlerID" : 33,
          "DecoArray" : [

          ],
          "RightDoorColorID" : -1,
          "RightHingeDoorID" : -1,
          "LeftDoorColorID" : 0,
          "RightHandlerID" : -1
        }
      ]
    }
  ]
}